…
``` r
#These data take values from -2 to 2.
   
data_CNA %>% 
  as_tibble() %>% 
  distinct(Hugo_Symbol)
```

    ## # A tibble: 842 x 1
    ##    Hugo_Symbol
    ##    <fct>      
    ##  1 ABCB11     
    ##  2 ABL1       
    ##  3 ABL2       
    ##  4 ACTB       
    ##  5 ACVR1      
    ##  6 ACVR1B     
    ##  7 ACVRL1     
    ##  8 AFF2       
    ##  9 AGMO       
    ## 10 AGO2       
    ## # ... with 832 more rows

``` r
data_CNA %>% 
  as_tibble() %>% 
  drop_na() %>% 
  distinct(Hugo_Symbol) #only 44 genes with all samples contributing?
```

    ## # A tibble: 54 x 1
    ##    Hugo_Symbol
    ##    <fct>      
    ##  1 AKT1       
    ##  2 AKT2       
    ##  3 ALK        
    ##  4 APC        
    ##  5 ARID1B     
    ##  6 ARID2      
    ##  7 ASXL1      
    ##  8 ATR        
    ##  9 BAP1       
    ## 10 BRAF       
    ## # ... with 44 more rows
…
Contains patient id, sex, race, ethnicity, and center.

### Clinical Sample Dataset

``` r
data_clinical_sample <- readRDS("data_clinical_sample.rds")

data_clinical_sample <- data_clinical_sample %>% 
  as_tibble() %>% 
  janitor::clean_names()

data_clinical_sample %>% distinct(cancer_type)
```

    ## # A tibble: 81 x 1
    ##    cancer_type               
    ##    <fct>                     
    ##  1 Appendiceal Cancer        
    ##  2 Colorectal Cancer         
    ##  3 Cancer of Unknown Primary 
    ##  4 Non-Small Cell Lung Cancer
    ##  5 Breast Cancer             
    ##  6 Pancreatic Cancer         
    ##  7 Leukemia                  
    ##  8 Melanoma                  
    ##  9 Salivary Gland Cancer     
    ## 10 Endometrial Cancer        
    ## # ... with 71 more rows
…
